1,1,0,olarudan@gmail.com,0
125,1,0,rnoldv@who.int,0
43,1,0,pkumar@theunion.org,0
88,1,0,ssuliman@theunion.org,0
87,1,0,sratte@theunion.org,0
84,1,0,skumar@theunion.org,0
75,1,0,sdrolon@theunion.org,0
127,1,0,debra@healthbridge.ca,0
70,1,0,sbarlow@theunion.org,0
68,1,0,sandra.mullin@gmail.com,0
61,1,0,rkumar@theunion.org,0
51,1,0,pwhite@theunion.org,0
60,1,0,rjsingh@theunion.org,0
44,1,0,plal@theunion.org,0
18,1,0,nditkivska@theunion.org,0
133,1,0,kkumari@iuatld.org,0
134,1,0,mkashyap@iuatld.org,0
135,1,0,nwilson@iauld.org,0
128,1,0,myersj75@gmail.com,0
137,1,0,ppmandal@iuatld.org,0
139,1,0,sghogh@iuatld.org,0
3,1,0,glen@tobaccofreekids.org,0
146,1,0,sjones@iuatld.org,0
2,1,0,dolaru@jhsph.edu,0
96,1,0,ttengvall@theunion.org,0
141,1,0,tpalorkar@iuatld.org,0
163,1,0,admin@globaltobaccocontrolpartners.org,1
155,1,0,gchalk@comcast.net,3
156,1,0,mdadamo@jhuccp.org,5
157,1,0,mbeisser@jhuccp.org,6
159,1,0,dolaru@jhuccp.org,8
160,1,0,elinton@jhuccp.org,9
162,1,0,test@testestestest123.com,11
161,1,0,sgoldste@jhuccp.org,12
5,1,0,kjhenning@aol.com,14
150,1,0,kkemper@tobaccofreekids.org,16
154,1,0,dmoglen@tobaccofreekids.org,17
145,1,0,mhurley@tobaccofreekids.org,18
83,1,0,sjones@theunion.org,19
165,1,0,jlcastro@iuatld.org,20
86,1,0,smullin@worldlungfoundation.org,21
130,1,0,hwipfli@jhsph.edu,22
147,1,0,gsaffitz@jhsph.edu,23
11,1,0,wparra@cdc.gov,24
76,1,0,sea5@cdc.gov,25
129,1,0,arnoldv@who.int,26
7,1,0,perugaa@who.int,27
164,1,0,gchalk@jhuccp.org,29
167,1,0,larmstrong@tobaccofreekids.org,30
169,1,0,seasley@cdc.gov,32
171,1,0,alukban@tobaccofreekids.org,34
173,1,0,hwaters@jhsph.edu,37
174,1,0,edonalds@jhsph.edu,38
175,1,0,mhawthor@jhsph.edu,39
176,1,0,dcroft@jhsph.edu,40
8,1,0,rhammond@tobaccofreekids.org,44
45,1,0,plambert@tobaccofreekids.org,46
9,1,0,slawrence@tobaccofreekids.org,47
183,1,0,mmyers@tobaccofreekids.org,49
59,1,0,rhnathan@comcast.net,51
148,1,0,lsferrazza@tobaccofreekids.org,53
104,1,0,vwillmore@tobaccofreekids.org,54
187,1,0,eyin@tobaccofreekids.org,55
188,1,0,lenglish@cdc.gov,56
189,1,0,jhsia@cdc.gov,57
191,1,0,mmckenna@cdc.gov,59
192,1,0,cpn9@cdc.gov,60
193,1,0,djt4@cdc.gov,61
116,1,0,wwarren@cdc.gov,62
194,1,0,lmorris@cdc.gov,63
103,1,0,vjn1@cdc.gov,64
195,1,0,cgranoff@cdc.gov,65
196,1,0,kir8@cdc.gov,66
197,1,0,cks8@cdc.gov,67
17,1,0,nbillo@theunion.org,69
205,1,0,coxa@fctc.org,73
168,1,0,diethelmp@fctc.org,74
206,1,0,sdrolon@iuatld.org,75
209,1,0,furgursone@fctc.org,77
210,1,0,garcons@fctc.org,78
213,1,0,jonathan.liberman@cancervic.org.au,82
4,1,0,jmackay@worldlungfoundation.org,83
214,1,0,fm@martinezgroup.com,84
215,1,0,imarsilio@iuatld.org,85
218,1,0,erampton@worldlungfoundation.org,89
219,1,0,asrendeiro@aol.com,90
80,1,0,singkousona@fctc.org,92
220,1,0,lstewart@theunion.org,94
221,1,0,jthomas@worldlungfoundation.org,95
131,1,0,nwilson@iuatld.org,96
6,1,0,linzhao@public.bta.net.cn,97
126,1,0,bapelber@jhsph.edu,101
227,1,0,trfrieden@yahoo.com,103
230,1,0,jbertran@jhsph.edu,109
35,1,0,pbreysse@jhsph.edu,110
55,1,0,rbrook@jhsph.edu,111
231,1,0,adineva@jhsph.edu,113
234,1,0,chjames@jhsph.edu,115
235,1,0,srkim@jhsph.edu,117
149,1,0,jsamet@jhsph.edu,120
143,1,0,fstillma@jhsph.edu,121
238,1,0,etang@jhsph.edu,122
10,1,0,stamplin@jhsph.edu,123
239,1,0,bettcherd@who.int,125
240,1,0,delandk@who.int,126
41,1,0,petitp@who.int,128
99,1,0,vercammenl@who.int,131
243,1,0,blancoad@paho.org,132
245,1,0,elawaf@emro.who.int,134
246,1,0,han@euro.who.int,135
53,1,0,rahmank@whosea.org,136
89,1,0,sungkhobold@searo.who.int,137
46,1,0,postmaster@bra.ops-oms.org,138
247,1,0,bekedamh@chn.wpro.who.int,139
110,1,0,wregypt@egy.emro.who.int,140
248,1,0,habayebs@searo.who.int,141
40,1,0,peterseng@who.or.id,142
109,1,0,wr@pak.emro.who.int,143
32,1,0,olivej@wpro.who.int,144
249,1,0,mary.collins@who.org.ru,145
250,1,0,jayawickramarajah@searo.who.int,146
251,1,0,imi@euro.who.int,147
252,1,0,ipo@who.org.ua,148
253,1,0,troedssonh@vtn.wpro.who.int,149
254,1,0,gch@jhu.gg2.org,150
170,1,0,lirani@jhuccp.org,203
172,1,0,lhepp@jhsph.edu,204
255,1,0,bbonner@tobaccofreekids.org,205
34,1,0,pbaldini@worldlungfoundation.org,206
256,1,0,fgodfrey@iuatld.org,207
257,1,0,engalnds@wpro.who.int,208
106,1,0,wibisanaw@who.or.id,210
259,1,0,cavanaghs@fctc.org,211
261,1,0,delseroad@tobaccofreekids.org,213
262,1,0,kmouchabeck@cdc.gov,217
263,1,0,kpalipudi@cdc.gov,218
264,1,0,ksweeney@tobaccofreekids.org,219
265,1,0,lzhong@tobaccofreekids.org,220
266,1,0,msterner@tobaccofreekids.org,221
13,1,0,mwang@tobaccofreekids.org,222
21,1,0,nlopez@worldlungfoundation.org,223
267,1,0,defroymson@iuatld.org,226
268,1,0,thuy.tran@jhu.edu,227
85,1,0,smither@who.int,229
269,1,0,mhaymore@tobaccofreekids.org,230
260,1,0,ytsai@jhsph.edu,231
37,1,0,pedrosoj@wpro.who.int,232
270,1,0,mercados@wpro.who.int,233
271,1,0,akbaral@wpro.who.int,234
15,1,0,navem@wpro.who.int,235
113,1,0,wuy@wpro.who.int,236
19,1,0,NgaP@wpro.who.int,238
102,1,0,villarreizd@wpro.who.int,239
121,1,0,yuanb@wpro.who.int,241
179,1,0,huberl@fctc.org,243
225,1,0,jellis@bloombergfoundation.org,244
144,1,0,m.daube@curtin.edu.au,245
232,1,0,clementshunta@who.int,247
233,1,0,laniels@who.int,248
123,1,0,zoltyb@who.int,249
66,1,0,sandal@who.int,250
228,1,0,fud@who.int,251
226,1,0,ferranted@who.int,253
223,1,0,fitzpatrickc@who.int,254
224,1,0,iacobescuc@who.int,255
180,1,0,madgel@who.int,256
22,1,0,noazins@who.int,257
108,1,0,williamsbg@who.int,259
229,1,0,liug@wpro.who.int,260
65,1,0,rrabimov@worldlungfoundation.org,263
181,1,0,brothbart@tobaccofreekids.org,264
79,1,0,shamill@worldlungfoundation.org,265
186,1,0,aagyeman@tobaccofreekids.org,266
166,1,0,jbirckmayer@tobaccofreekids.org,267
36,1,0,pcoffey@tobaccofreekids.org,268
184,1,0,hhopko@tobaccofreekids.org,269
82,1,0,sjohn@tobaccofreekids.org,270
185,1,0,jalday@worldlungfoundation.org,271
190,1,0,dkhaltourina@tobaccofreekids.org,272
29,1,0,oknorre@tobaccofreekids.org,273
25,1,0,ntoropova@tobaccofreekids.org,274
274,1,0,lwest@tobaccofreekids.org,275
119,1,0,ychang@worldlungfoundation.org,276
177,1,0,mgreen@cdcfoundation.org,277
178,1,0,gchalk@gmail.com,278
275,1,0,dev@globaltobaccocontrolpartners.org,279
64,1,0,rperl@worldlungfoundation.org,280
101,1,0,vestalg@who.int,281
73,1,0,schottek@who.int,283
216,1,0,slevy@worldlungfoundation.org,284
118,1,0,ybokhour@worldlungfoundation.org,285
142,1,0,tsbam@iuatld.org,287
222,1,0,bbellew@theunion.org,288
217,1,0,mbudziak@theunion.org,289
237,1,0,nditkivska@iuatld.org,291
236,1,0,gelnahas@iuatld.org,292
212,1,0,tfraser@iuatld.org,293
211,1,0,ajones@iuatld.org,294
207,1,0,mkaur@theunion.org,295
208,1,0,mkumar@iuatld.org,296
140,1,0,skumar@iuatld.org,297
202,1,0,ematin@iuatld.org,298
242,1,0,mmolinari@theunion.org,299
200,1,0,gnasr@iuatld.org,300
201,1,0,dning@iuatld.org,301
198,1,0,sratte@iuatld.org,302
199,1,0,hselin@iuatld.org,303
138,1,0,rjsingh@iuatld.org,304
276,1,0,ttengvall@iuatld.org,306
277,1,0,fthompson@iuatld.org,307
278,1,0,cvoroneanu@iuatld.org,308
279,1,0,pwhite@iuatld.org,309
14,1,0,mwisotzky@theunion.org,310
280,1,0,elatif@theunion.org,312
281,1,0,vchopra@worldlungfoundation.org,313
282,1,0,kbissell@theunion.org,314
283,1,0,mkelly@bloombergfoundation.org,316
284,1,0,sghosh@iuatld.org,318
58,1,0,restrepom@searo.who.int,319
285,1,0,alipiazzaz@who.int,320
286,1,0,aryeequansahmj@who.int,321
33,1,0,pattenc@who.int,322
39,1,0,perucica@who.int,323
16,1,0,nawareri@paho.org,324
63,1,0,romeroxo@mex.ops-oms.org,325
62,1,0,rojasjai@paho.org,326
287,1,0,caixetar@bra.ops-oms.org,327
38,1,0,pereiras@bra.ops-oms.org,328
52,1,0,qureshif@emro.who.int,329
288,1,0,fouadh@emro.who.int,330
54,1,0,randanaga2006@yahoo.com,331
289,1,0,khans@whopak.org,332
290,1,0,kma@euro.who.int,333
291,1,0,a.buzurukov@who.org.ru,335
27,1,0,o.storozhenko@who.org.ru,336
292,1,0,ambroziakm@euro.who.int,337
293,1,0,ergudert@euro.who.int,338
294,1,0,krasovskyk@who.org.ua,339
81,1,0,sinhad@searo.who.int,340
94,1,0,tripathin@searo.who.int,341
295,1,0,ishrat.chowdhury@yahoo.com,342
296,1,0,choudhjurys@searo.who.int,343
297,1,0,kabiri@searo.who.int,344
298,1,0,jahann@searo.who.int,345
299,1,0,maitikd@searo.who.int,346
300,1,0,christianiy@who.or.id,347
301,1,0,chai@searo.who.int,348
69,1,0,sawat@searo.who.int,349
48,1,0,pransak@searo.who.int,350
302,1,0,gun@searo.who.int,351
241,1,0,ccedillo@worldlungfoundation.org,352
258,1,0,manpreet_matharoo@yahoo.co.in,353
244,1,0,mcarter@tobaccofreekids.org,354
20,1,0,nkibria@jhsph.edu,355
203,1,0,koulefianoul@fctc.org,356
204,1,0,joossens@globalink.org,357
100,1,0,verovicj@fctc.org,358
303,1,0,aclubb@tobaccofreekids.org,359
132,1,0,bgopalan@iuatld.org,360
304,1,0,pkumar@iuatld.org,361
72,1,0,scalzone@bloombergfoundation.org,362
136,1,0,plal@iuatld.org,363
305,1,0,hhx9@cdc.gov,364
122,1,0,yureklia@who.int,365
92,1,0,tecsone@who.int,366
272,1,0,lizzie.tecson@gmail.com,367
308,1,0,mlien@worldlungfoundation.org,368
309,1,0,btalley@cdcfoundation.org,369
310,1,0,rkumar@iuatld.org,370
311,1,0,francesluk@yahoo.com,373
105,1,0,wchen@worldlungfoundation.org,374
114,1,0,wuya@wpro.who.int,375
314,1,0,amerritt@jhuccp.org,376
50,1,0,pujaris@who.int,377
67,1,0,sandovar@paho.org,378
315,1,0,bhattil@who.int,379
316,1,0,leet@wpro.who.int,380
42,1,0,phamh@wpro.who.int,381
77,1,0,serraor@who.int,382
317,1,0,englands@wpro.who.int,383
318,1,0,constantalicelu@gmail.com,384
319,1,0,lgheorghiu@tobaccofreekids.org,385
320,1,0,jgorelick@tobaccofreekids.org,386
321,1,0,lvega@tobaccofreekids.org,387
322,1,0,drelatif@gmail.com,388
182,1,0,hkoenker@jhuccp.org,389
323,1,0,aahill@jhsph.edu,390
324,1,0,sbien-aime@cdcfoundation.org,391
23,1,0,nprasad@bloombergfoundation.org,392
325,1,0,klarson@bloombergfoundation.org,393
326,1,0,elias98_99@yahoo.com,394
111,1,0,wrindia@searo.who.int,395
327,1,0,lgarrido@iuatld.org,398
328,1,0,gsonora@iuatld.org,400
329,1,0,oleary@who.int,401
330,1,0,guy.chalk@gmail.com,402
273,1,0,khans@pak.emro.who.int,403
331,1,0,ismorozova@hotmail.com,404
332,1,0,vnibarger@tobaccofreekids.org,405
333,1,0,efeighery@tobaccofreekids.org,406
334,1,0,mmuggli@tobaccofreekids.org,407
335,1,0,kwallner@tobaccofreekids.org,408
336,1,0,hema@tobaccofreekids.org,409
337,1,0,acorke@tobaccofreekids.org,410
338,1,0,g_chalk@yahoo.com,411
339,1,0,ggriffith@theunion.org,412
49,1,0,pshah@tobaccofreekids.org,413
340,1,0,mlobrien@jhuccp.org,414
341,1,0,jabrams@tobaccofreekids.org,415
12,1,0,munishvg@searo.who.int,416
107,1,0,widy_wibisana@yahoo.com,417
342,1,0,akotov@worldlungfoundation.org,419
343,1,0,buzurukov@gmail.com,420
57,1,0,rdg@cbn.net.id,421
344,1,0,blozare@jhuccp.org,422
345,1,0,msharma@theunion.org,423
28,1,0,obb4@cdc.gov,424
30,1,0,olearyt@who.int,425
347,1,0,hail_parakram@yahoo.com,426
47,1,0,ppiotrow@jhuccp.org,427
348,1,0,gnasr@theunion.org,428
158,1,0,bob@crc.uri.edu,429
349,1,0,clane@tobaccofreekids.org,430
350,1,0,jbirkett@worldlungfoundation.org,431
351,1,0,edecarme@tobaccofreekids.org,432
26,1,0,nwilson@theunion.org,433
352,1,0,jalonso@tobaccofreekids.org,434
353,1,0,aisabell@jhuccp.org,435
120,1,0,ysun@theunion.org,436
313,1,0,carmen.karam@gmail.com,439
306,1,0,hliu@theunion.org,440
307,1,0,spearson@theunion.org,441
354,1,0,ahinojosa@theunion.org,442
356,1,0,betsy@bloombergfoundation.org,444
357,1,0,liuhong_e@hotmail.com,445
358,1,0,gsonora@theunion.org,446
359,1,0,fgodfrey@theunion.org,447
360,1,0,cvoroneanu@theunion.org,448
361,1,0,ewall@jhsph.edu,449
362,1,0,faslam@theunion.org,450
363,1,0,fouadaslam@gmail.com,451
71,1,0,sbuuron@theunion.org,452
312,1,0,mcoletti@theunion.org,453
355,1,0,iberezhnova@theunion.org,454
364,1,0,eefronso@jhsph.edu,455
367,1,0,jromo@theunion.org,457
91,1,0,te_psik@yahoo.com,459
368,1,0,kseymour@theunion.org,460
369,1,0,karabaeva@theunion.org,461
90,1,0,svallabhan@theunion.org,462
370,1,0,loutfym@egy.emro.who.int,463
371,1,0,gamezc@mex.ops-oms.org,464
372,1,0,caixetro@paho.org,465
346,1,0,dmedlev@theunion.org,466
97,1,0,tturk@worldlungfoundation.com,467
373,1,0,melghamrawy@worldlungfoundation.org,468
374,1,0,egreen@tobaccofreekids.org,469
24,1,0,nschluger@worldlungfoundation.org,470
375,1,0,jmckenzie@theunion.org,471
376,1,0,dkaleta@op.pl,472
377,1,0,doctor_irina@yahoo.co.uk,473
378,1,0,wgabal@hotmail.com,474
112,1,0,wsafwat@theunion.org,475
379,1,0,mhalim@theunion.org,476
380,1,0,baquilodm@wpro.who.int,477
381,1,0,fet_30@hotmail.com,478
98,1,0,ulysses@seatca.org,479
382,1,0,ajones@theunion.org,480
383,1,0,hanialgouhmani@yahoo.co.uk,481
56,1,0,rcheruku@jhsph.edu,482
384,1,0,goodchildm@searo.who.int,483
117,1,0,xyu@tobaccofreekids.org,484
115,1,0,wwan@theunion.org,485
124,1,0,zxi@tobaccofreekids.org,486
74,1,0,scottn@wpro.who.int,487
385,1,0,richardelmandernuillstokes@gmail.com,488
386,1,0,manpilac@friendpharmacy.com,489
387,1,0,minhasr@who.int,490
388,1,0,petersonlightmankobel@gmail.com,491
78,1,0,sgupta@worldlungfoundation.org,492
389,1,0,anabil@theunion.org,493
390,1,0,cmercer@worldlungfoundation.org,494
391,1,0,q.u.i.n.l.a.n.ste.ph.e.n.son@gmail.com,495
392,1,0,he.r.r.o.d.mcc.ull.oug.h@gmail.com,496
393,1,0,b.laz.ecas.eyo.l.om.o.n@gmail.com,497
31,1,0,oliveirag@bra.ops-oms.org,498
394,1,0,machangur@tz.afro.who.int,502
395,1,0,shess@cdc.gov,503
396,1,0,yrichardson@tobaccofreekids.org,504
397,1,0,aislam@theunion.org,505
399,1,0,rlal@theunion.org,507
400,1,0,tobaccofreeunion@theunion.org,509
401,1,0,lavoiema@paho.org,511
403,1,0,lstearley@tobaccofreekids.org,519
404,1,0,edinburghoffice@theunion.org,533
405,1,0,ibezhenar@theunion.org,534
406,1,0,aryeequansahm@who.int,535
407,1,0,arif_azad6@hotmail.com,536
398,1,0,arif.azad@thenetwork.org.pk,537
402,1,0,jchhor@theunion.org,539
151,1,0,gmamatova@tobaccofreekids.org,540
93,1,0,tfraser@theunion.org,541
408,1,0,todd.gi.w.aun.a.d.o.n.al.d@gmail.com,544
409,1,0,low.e.e.z.a.tofaf.el.ix@gmail.com,545
410,1,0,lo.v.es.o.n.bo.da.ba.rret.t@gmail.com,546
411,1,0,l.o.ves.o.nbod.ab.a.r.rett@gmail.com,547
412,1,0,l.o.w.eeza.tof.a.f.e.li.x@gmail.com,548
413,1,0,l.ove.so.nb.od.abarre.t.t@gmail.com,549
414,1,0,low.ee.zat.o.fa.f.el.ix@gmail.com,550
415,1,0,g.a.rn.erb.ra.d.l.y7.6.0@gmail.com,551
416,1,0,l.ove.s.on.b.odab.arret.t@gmail.com,552
417,1,0,c.arlt.ons.anf.o.rd.9@gmail.com,553
418,1,0,t.o.dd.g.iwaun.ad.on.al.d@gmail.com,554
419,1,0,loveso.n.bo.dabar.r.et.t@gmail.com,555
420,1,0,l.o.ve.so.nb.od.a.b.ar.re.tt@gmail.com,556
421,1,0,car.ol.g.a.ll.oway.19@gmail.com,557
422,1,0,jack@theunion.org,559
423,1,0,bfishburn@theunion.org,560
424,1,0,xzhang@theunion.org,561
425,1,0,ekaterina.slyunkina@yahoo.co.uk,562
426,1,0,machangu2001@yahoo.com,563
427,1,0,nelson.atehortua@gmail.com,564
428,1,0,jswhitley@theunion.org,565
429,1,0,ehenderson@tobaccofreekids.org,566
432,1,0,DVidikan@tobaccofreekids.org,569
430,1,0,aschwid@tobaccofreekids.org,570
431,1,0,akhanal@tobaccofreekids.org,571
433,1,0,bbluett@tobaccofreekids.org,572
434,1,0,cdougherty@tobaccofreekids.org,573
435,1,0,dlak@tobaccofreekids.org,574
436,1,0,gachnas@tobaccofreekids.org,575
437,1,0,jbolt@tobaccofreekids.org,576
438,1,0,jpal@tobaccofreekids.org,577
439,1,0,kwang@tobaccofreekids.org,578
440,1,0,lcandler@tobaccofreekids.org,579
441,1,0,mcarmona@tobaccofreekids.org,580
442,1,0,mary.assunta@cancer.org.au,581
443,1,0,nusmanova@tobaccofreekids.org,582
444,1,0,psosa@tobaccofreekids.org,583
445,1,0,RSuwardi@tobaccofreekids.org,584
446,1,0,sseth@tobaccofreekids.org,585
447,1,0,swhite@tobaccofreekids.org,586
448,1,0,trahman@tobaccofreekids.org,587
449,1,0,vshah@tobaccofreekids.org,588
450,1,0,vdubinsky@tobaccofreekids.org,589
451,1,0,dmcgoldrick@tobaccofreekids.org,590
452,1,0,kofevpos@mail.ru,593
453,1,0,humaira17@gmail.com,594
454,1,0,evonne_gregorio@yahoo.co.uk,595
455,1,0,warner.alliso.n2.8.9@gmail.com,596
456,1,0,w.ar.ner.al.l.is.o.n289@gmail.com,597
457,1,0,wa.r.neralliso.n28.9@gmail.com,598
458,1,0,wa.r.nerall.iso.n.28.9@gmail.com,599
459,1,0,bur.k.e.c.ale.b8@gmail.com,600
460,1,0,w.a.r.n.er.a.l.li.s.on.2.8.9@gmail.com,601
461,1,0,f.o.dul.u.g@gmail.com,602
462,1,0,warne.ra.l.l.ison.289@gmail.com,603
463,1,0,jaskconfoole@aol.com,604
464,1,0,k.ram.e.ro.g.ol.a.s.e.ma.rcu.s@gmail.com,605
465,1,0,kra.m.e.ro.g.o.la.sem.ar.cus@gmail.com,606
466,1,0,k.r.amer.ogo.la.s.e.ma.rcus@gmail.com,607
467,1,0,donnette_jeraldine@yahoo.co.uk,608
468,1,0,dkfjgherioguhihf@gmail.com,609
469,1,0,iqzees@oitlia.com,610
470,1,0,xslvim@vltqfv.com,611
471,1,0,loganm@fctc.org,612
472,1,0,nchipy@jxikgt.com,613
473,1,0,jzcnyk@azukly.com,614
474,1,0,g.odefa.strip.lofg@gmail.com,615
475,1,0,kimmacjdd34@aol.com,616
476,1,0,makryramizer3@aol.com,617
477,1,0,t0r8eh3dd@yandex.com,618
478,1,0,wgtsswe@yandex.com,619
479,1,0,orev4ik@mail.ru,620
480,1,0,itsmyf.irstbe@gmail.com,621
481,1,0,ejflrefvbr@yandex.com,622
482,1,0,g.od.efa.strip.lofg@gmail.com,623
365,1,0,cmickish@jhuccp.org,626
483,1,0,rsharma@theunion.org,628
484,1,0,srajoria@theunion.org,629
485,1,0,badfoze@gmail.com,630
366,1,0,jcgazit@gmail.com,631
486,1,0,msabella@theunion.org,632
487,1,0,qgan@theunion.org,633
488,1,0,ylin@theunion.org,634
489,1,0,jocohen@jhsph.edu,635
490,1,0,bad.f.oze@gmail.com,636
491,1,0,jlcastro@theunion.org,637
492,1,0,rarickj@wpro.who.int,638
493,1,0,adavid@theunion.org,642
494,1,0,amdavid@guamcell.net,643
495,1,0,nodesfor@cutethumbs.net,644
95,1,0,tsbam@theunion.org,645
496,1,0,akki2810@gmail.com,646
497,1,0,marybago@gmail.com,647
498,1,0,retzel@earthlink.net,648
499,1,0,info@acct-rdc.org,649
500,1,0,patrickshamba@acct-rdc.org,650
501,1,0,talamonij@yahoo.fr,651
502,1,0,saleh.bahati@gmail.com,652
503,1,0,njoumemiz@hotmail.com,653
504,1,0,kristinafagan@yahoo.ca,654
505,1,0,amdavidmd@yahoo.com,655
506,1,0,jelf@jhsph.edu,656
507,1,0,vfa1@cdc.gov,657
508,1,0,kjhsuch@vghks.gov.tw,658
509,1,0,njhb1p7l19@hotmail.com,659
510,1,0,dianzijisuan@sina.com,660
511,1,0,rjayatilake@tobaccofreekids.org,661
512,1,0,aac4@cdc.gov,662
513,1,0,sliss@tobaccofreekids.org,663
514,1,0,sbastiampillai@tobaccofreekids.org,664
515,1,0,rashore@jhuccp.org,665
153,1,0,bcamara@tobaccofreekids.org,666
152,1,0,fbuchan@theunion.org,667